"store","websites","attribute_set","type","category_ids","sku","has_options","name","meta_title","meta_description","image","small_image","thumbnail","url_key","url_path","custom_design","page_layout","options_container","image_label","small_image_label","thumbnail_label","country_of_manufacture","msrp_enabled","msrp_display_actual_price_type","gift_message_available","price","special_price","weight","msrp","status","is_recurring","visibility","tax_class_id","is_imported","featured","walltilebrand","tilesize","coveredsqft","description","short_description","meta_keyword","custom_layout_update","special_from_date","special_to_date","news_from_date","news_to_date","custom_design_from","custom_design_to","qty","min_qty","use_config_min_qty","is_qty_decimal","backorders","use_config_backorders","min_sale_qty","use_config_min_sale_qty","max_sale_qty","use_config_max_sale_qty","is_in_stock","low_stock_date","notify_stock_qty","use_config_notify_stock_qty","manage_stock","use_config_manage_stock","stock_status_changed_auto","use_config_qty_increments","qty_increments","use_config_enable_qty_inc","enable_qty_increments","is_decimal_divided","stock_status_changed_automatically","use_config_enable_qty_increments","product_name","store_id","product_type_id","product_status_changed","product_changed_websites","website","_media_image","_media_lable","_media_position","_media_is_disabled"
"admin","base","WallTile","simple","68,190,196","Bkctwk04","0","DG 2005","","","/d/g/dg_2005_h1_2.jpg","/d/g/dg_2005_h1_2.jpg","/d/g/dg_2005_h1_2.jpg","dg-2005","dg-2005.html","","No layout updates","Block after Info Column","","",""," ","Use config","Use config","No","960.0000","","23.5000","","Enabled","No","Catalog, Search","None","No","0","Cera","300mmX600mm","16","Dg 2005","<h3>Per Box</h3>
<h3>Each box contain 8pcs these will cover 16 sq ft</h3>","","","","","","","","","1000.0000","0.0000","1","0","0","1","1.0000","1","0.0000","1","1","","","1","0","1","0","1","0.0000","1","0","0","0","1","DG 2005","0","simple","","","","","","",""
"admin","","","","","Bkctwk04","","","","","","","","","","","","","","","","","","","","","","","","","","","","","","","","","","","","","","","","","","","","","","","","","","","","","","","","","","","","","","","","","","","","","","","","","/d/g/dg_2005_h3_2.jpg","","2","0"
