store,websites,attribute_set,type,category_ids,sku,has_options,name,meta_title,meta_description,image,small_image,thumbnail,url_key,url_path,page_layout,options_container,image_label,small_image_label,thumbnail_label,country_of_manufacture,msrp_enabled,msrp_display_actual_price_type,gift_message_available,price,special_price,weight,msrp,status,is_recurring,visibility,tax_class_id,is_imported,featured,walltilebrand,tilesize,coveredsqft,tiletype,description,short_description,meta_keyword,custom_layout_update,special_from_date,special_to_date,news_from_date,news_to_date,custom_design_from,custom_design_to,qty,min_qty,use_config_min_qty,is_qty_decimal,backorders,use_config_backorders,min_sale_qty,use_config_min_sale_qty,max_sale_qty,use_config_max_sale_qty,is_in_stock,low_stock_date,notify_stock_qty,use_config_notify_stock_qty,manage_stock,use_config_manage_stock,stock_status_changed_auto,use_config_qty_increments,qty_increments,use_config_enable_qty_inc,enable_qty_increments,is_decimal_divided,stock_status_changed_automatically,use_config_enable_qty_increments,product_name,store_id,product_type_id,product_status_changed,product_changed_websites
admin,base,WallTile,simple,"81,91,192",Bktpd01,0,Safari 6001,,,/6/0/6001_jpg.jpg,/6/0/6001_jpg.jpg,/6/0/6001_jpg.jpg,safari-6001,safari-6001.html,No layout updates,Block after Info Column,,,, ,Use config,Use config,No,400,,8,,Enabled,No,"Catalog, Search",None,No,0,Safari,300mmX300mm,8,Parking Tiles,Safari,"<h3>per box</h3>
</h3>Each box contain 8 pcs these will cover 8 sq ft</h3>",,,,,,,,,1000,0,1,0,0,1,1,1,0,1,1,,0,1,0,1,0,1,0,1,0,0,0,1,Safari 6001,0,simple,,
admin,base,WallTile,simple,"81,91,192",Bktpd02,0,Safari 6002,,,/6/0/6002_jpg.jpg,/6/0/6002_jpg.jpg,/6/0/6002_jpg.jpg,safari-6002,safari-6002.html,No layout updates,Block after Info Column,,,, ,Use config,Use config,No,400,,8,,Enabled,No,"Catalog, Search",None,No,0,Safari,300mmX300mm,8,Parking Tiles,Safari,"<h3>per box</h3>
<h3>Each box contain 8 pcs these will cover 8 sq ft</h3>",,,,,,,,,1000,0,1,0,0,1,1,1,0,1,1,,0,1,0,1,0,1,0,1,0,0,0,1,Safari 6002,0,simple,,
admin,base,WallTile,simple,"81,91,192",Bktpd03,0,Safari 6003,,,/6/0/6003.jpg,/6/0/6003.jpg,/6/0/6003.jpg,safari-6003,safari-6003.html,No layout updates,Block after Info Column,,,, ,Use config,Use config,No,400,,8,,Enabled,No,"Catalog, Search",None,No,0,Safari,300mmX300mm,8,Parking Tiles,Safari,"<h3>per box</h3>
<h3>Each box contain 8 pcs these will cover 8 sq ft</h3>",,,,,,,,,1000,0,1,0,0,1,1,1,0,1,1,,0,1,0,1,0,1,0,1,0,0,0,1,Safari 6003,0,simple,,
admin,base,WallTile,simple,"81,91,192",Bktpd04,0,Safari 6004,,,/6/0/6004.jpg,/6/0/6004.jpg,/6/0/6004.jpg,safari-6004,safari-6004.html,No layout updates,Block after Info Column,,,, ,Use config,Use config,No,400,,8,,Enabled,No,"Catalog, Search",None,No,0,Safari,300mmX300mm,8,Parking Tiles,Safari,"<h3>Per box</h3>
<h3>Each box contain 8 pcs these will cover 8 sq ft</h3>",,,,,,,,,1000,0,1,0,0,1,1,1,0,1,1,,0,1,0,1,0,1,0,1,0,0,0,1,Safari 6004,0,simple,,
admin,base,WallTile,simple,"81,91,192",Bktpd05,0,Safari 6005,,,/6/0/6005.jpg,/6/0/6005.jpg,/6/0/6005.jpg,safari-6005,safari-6005.html,No layout updates,Block after Info Column,,,, ,Use config,Use config,No,400,,8,,Enabled,No,"Catalog, Search",None,No,0,Safari,300mmX300mm,8,Parking Tiles,Safari,"<h3>Per box</h3>
<h3>Each box contain 8 pcs these will cover 8 sq ft</h3>",,,,,,,,,1000,0,1,0,0,1,1,1,0,1,1,,0,1,0,1,0,1,0,1,0,0,0,1,Safari 6005,0,simple,,
admin,base,WallTile,simple,"81,91,192",Bktpd12,0,Safari 6012,,,/6/0/6012.jpg,/6/0/6012.jpg,/6/0/6012.jpg,safari-6012,safari-6012.html,No layout updates,Block after Info Column,,,, ,Use config,Use config,No,400,,8,,Enabled,No,"Catalog, Search",None,No,0,Safari,300mmX300mm,8,Parking Tiles,Safari,"<h3>Per box</h3>
<h3>Each box contain 8 pcs these will cover 8 sq ft</h3>",,,,,,,,,1000,0,1,0,0,1,1,1,0,1,1,,0,1,0,1,0,1,0,1,0,0,0,1,Safari 6012,0,simple,,
admin,base,WallTile,simple,"81,91,192",Bktpd13,0,Safari 6013,,,/6/0/6013.jpg,/6/0/6013.jpg,/6/0/6013.jpg,safari-6013,safari-6013.html,No layout updates,Block after Info Column,,,, ,Use config,Use config,No,400,,8,,Enabled,No,"Catalog, Search",None,No,0,Safari,300mmX300mm,8,Parking Tiles,Safari,"<h3>Per box</h3>
<h3>Each box contain 8 pcs these will cover 8 sq ft</h3>",,,,,,,,,1000,0,1,0,0,1,1,1,0,1,1,,0,1,0,1,0,1,0,1,0,0,0,1,Safari 6013,0,simple,,
admin,base,WallTile,simple,"81,91,192",Bktpd16,0,Safari 6016,,,/6/0/6016.jpg,/6/0/6016.jpg,/6/0/6016.jpg,safari-6016,safari-6016.html,No layout updates,Block after Info Column,,,, ,Use config,Use config,No,400,,8,,Enabled,No,"Catalog, Search",None,No,0,Safari,300mmX300mm,8,Parking Tiles,Safari,"<h3>Per box</h3>
<h3>Each box contain 8 pcs these will cover 8 sq ft</h3>",,,,,,,,,1000,0,1,0,0,1,1,1,0,1,1,,0,1,0,1,0,1,0,1,0,0,0,1,Safari 6016,0,simple,,
admin,base,WallTile,simple,"81,91,192",Bktpd18,0,Safari 6018,,,/6/0/6018.jpg,/6/0/6018.jpg,/6/0/6018.jpg,safari-6018,safari-6018.html,No layout updates,Block after Info Column,,,, ,Use config,Use config,No,400,,8,,Enabled,No,"Catalog, Search",None,No,0,Safari,300mmX300mm,8,Parking Tiles,Safari,"<h3>Per box</h3>
<h3>Each box contain 8 pcs these will cover 8 sq ft</h3>",,,,,,,,,1000,0,1,0,0,1,1,1,0,1,1,,0,1,0,1,0,1,0,1,0,0,0,1,Safari 6018,0,simple,,
admin,base,WallTile,simple,"81,91,192",Bktpd20,0,Safari 6020,,,/6/0/6020.jpg,/6/0/6020.jpg,/6/0/6020.jpg,safari-6020,safari-6020.html,No layout updates,Block after Info Column,,,, ,Use config,Use config,No,400,,8,,Enabled,No,"Catalog, Search",None,No,0,Safari,300mmX300mm,8,Parking Tiles,Safari,"<h3>Per box</h3>
<h3>Each box contain 8 pcs these will cover 8 sq ft</h3>",,,,,,,,,1000,0,1,0,0,1,1,1,0,1,1,,0,1,0,1,0,1,0,1,0,0,0,1,Safari 6020,0,simple,,
admin,base,WallTile,simple,"81,91,192",Bktpd21,0,Safari 6021,,,/6/0/6021.jpg,/6/0/6021.jpg,/6/0/6021.jpg,safari-6021,safari-6021.html,No layout updates,Block after Info Column,,,, ,Use config,Use config,No,400,,8,,Enabled,No,"Catalog, Search",None,No,0,Safari,300mmX300mm,8,Parking Tiles,Safari,"<h3>Per box</h3>
<h3>Each box contain 8 pcs these will cover 8 sq ft</h3>",,,,,,,,,1000,0,1,0,0,1,1,1,0,1,1,,0,1,0,1,0,1,0,1,0,0,0,1,Safari 6021,0,simple,,
admin,base,WallTile,simple,"81,91,192",Bktpd22,0,Safari 6022,,,/6/0/6022.jpg,/6/0/6022.jpg,/6/0/6022.jpg,safari-6022,safari-6022.html,No layout updates,Block after Info Column,,,, ,Use config,Use config,No,400,,8,,Enabled,No,"Catalog, Search",None,No,0,Safari,300mmX300mm,8,Parking Tiles,Safari,"<h3>Per box</h3>
<h3>Each box contain 8 pcs these will cover 8 sq ft</h3>",,,,,,,,,1000,0,1,0,0,1,1,1,0,1,1,,0,1,0,1,0,1,0,1,0,0,0,1,Safari 6022,0,simple,,
admin,base,WallTile,simple,"81,91,192",Bktpd28,0,Safari 6028,,,/6/0/6028.jpg,/6/0/6028.jpg,/6/0/6028.jpg,safari-6028,safari-6028.html,No layout updates,Block after Info Column,,,, ,Use config,Use config,No,400,,8,,Enabled,No,"Catalog, Search",None,No,0,Safari,300mmX300mm,8,Parking Tiles,Safari,"<h3>Per box</h3>
<h3>Each box contain 8 pcs these will cover 8 sq ft</h3>",,,,,,,,,1000,0,1,0,0,1,1,1,0,1,1,,0,1,0,1,0,1,0,1,0,0,0,1,Safari 6028,0,simple,,
admin,base,WallTile,simple,"81,91,192",Bktpd34,0,Safari 6034,,,/6/0/6034.jpg,/6/0/6034.jpg,/6/0/6034.jpg,safari-6034,safari-6034.html,No layout updates,Block after Info Column,,,, ,Use config,Use config,No,400,,8,,Enabled,No,"Catalog, Search",None,No,0,Safari,300mmX300mm,8,Parking Tiles,Safari,"<h3>Per box</h3>
<h3>Each box contain 8 pcs these will cover 8 sq ft</h3>",,,,,,,,,1000,0,1,0,0,1,1,1,0,1,1,,0,1,0,1,0,1,0,1,0,0,0,1,Safari 6034,0,simple,,
admin,base,WallTile,simple,"81,91,192",Bktpd37,0,Safari 6037,,,/6/0/6037.jpg,/6/0/6037.jpg,/6/0/6037.jpg,safari-6037,safari-6037.html,No layout updates,Block after Info Column,,,, ,Use config,Use config,No,400,,8,,Enabled,No,"Catalog, Search",None,No,0,Safari,300mmX300mm,8,Parking Tiles,Safari,"<h3>Per box</h3>
<h3>Each box contain 8 pcs these will cover 8 sq ft</h3>",,,,,,,,,1000,0,1,0,0,1,1,1,0,1,1,,0,1,0,1,0,1,0,1,0,0,0,1,Safari 6037,0,simple,,
admin,base,WallTile,simple,"81,91,192",Bktpd06,0,Safari 6006,,,/6/0/6006.jpg,/6/0/6006.jpg,/6/0/6006.jpg,safari-6006,safari-6006.html,No layout updates,Block after Info Column,,,,,Use config,Use config,No,400,,8,,Enabled,No,"Catalog, Search",None,No,0,Safari,300mmX300mm,8,Parking Tiles,Safari,"<h3>Per box</h3>
<h3>Each box contain 8 pcs these will cover 8 sq ft</h3>",,,,,,,,,1000,0,1,0,0,1,1,1,0,1,1,,0,1,0,1,0,1,0,1,0,0,0,1,Safari 6006,0,simple,,
admin,base,WallTile,simple,"81,91,192",Bktpd07,0,Safari 6007,,,/6/0/6007.jpg,/6/0/6007.jpg,/6/0/6007.jpg,safari-6007,safari-6007.html,No layout updates,Block after Info Column,,,,,Use config,Use config,No,400,,8,,Enabled,No,"Catalog, Search",None,No,0,Safari,300mmX300mm,8,Parking Tiles,Safari,"<h3>Per box</h3>
<h3>Each box contain 8 pcs these will cover 8 sq ft</h3>",,,,,,,,,1000,0,1,0,0,1,1,1,0,1,1,,0,1,0,1,0,1,0,1,0,0,0,1,Safari 6007,0,simple,,
admin,base,WallTile,simple,"81,91,192",Bktpd08,0,Safari 6008,,,/6/0/6008.jpg,/6/0/6008.jpg,/6/0/6008.jpg,safari-6008,safari-6008.html,No layout updates,Block after Info Column,,,,,Use config,Use config,No,400,,8,,Enabled,No,"Catalog, Search",None,No,0,Safari,300mmX300mm,8,Parking Tiles,Safari,"<h3>Per box</h3>
<h3>Each box contain 8 pcs these will cover 8 sq ft</h3>",,,,,,,,,1000,0,1,0,0,1,1,1,0,1,1,,0,1,0,1,0,1,0,1,0,0,0,1,Safari 6008,0,simple,,
admin,base,WallTile,simple,"81,91,192",Bktpd09,0,Safari 6009,,,/6/0/6009.jpg,/6/0/6009.jpg,/6/0/6009.jpg,safari-6009,safari-6009.html,No layout updates,Block after Info Column,,,,,Use config,Use config,No,400,,8,,Enabled,No,"Catalog, Search",None,No,0,Safari,300mmX300mm,8,Parking Tiles,Safari,"<h3>Per box</h3>
<h3>Each box contain 8 pcs these will cover 8 sq ft</h3>",,,,,,,,,1000,0,1,0,0,1,1,1,0,1,1,,0,1,0,1,0,1,0,1,0,0,0,1,Safari 6009,0,simple,,
admin,base,WallTile,simple,"81,91,192",Bktpd10,0,Safari 6010,,,/6/0/6010.jpg,/6/0/6010.jpg,/6/0/6010.jpg,safari-6010,safari-6010.html,No layout updates,Block after Info Column,,,,,Use config,Use config,No,400,,8,,Enabled,No,"Catalog, Search",None,No,0,Safari,300mmX300mm,8,Parking Tiles,Safari,"<h3>Per box</h3>
<h3>Each box contain 8 pcs these will cover 8 sq ft</h3>",,,,,,,,,1000,0,1,0,0,1,1,1,0,1,1,,0,1,0,1,0,1,0,1,0,0,0,1,Safari 6010,0,simple,,
admin,base,WallTile,simple,"81,91,192",Bktpd11,0,Safari 6011,,,/6/0/6011.jpg,/6/0/6011.jpg,/6/0/6011.jpg,safari-6011,safari-6011.html,No layout updates,Block after Info Column,,,,,Use config,Use config,No,400,,8,,Enabled,No,"Catalog, Search",None,No,0,Safari,300mmX300mm,8,Parking Tiles,Safari,"<h3>Per box</h3>
<h3>Each box contain 8 pcs these will cover 8 sq ft</h3>",,,,,,,,,1000,0,1,0,0,1,1,1,0,1,1,,0,1,0,1,0,1,0,1,0,0,0,1,Safari 6011,0,simple,,
admin,base,WallTile,simple,"81,91,192",Bktpd14,0,Safari 6014,,,/6/0/6014.jpg,/6/0/6014.jpg,/6/0/6014.jpg,safari-6014,safari-6014.html,No layout updates,Block after Info Column,,,,,Use config,Use config,No,400,,8,,Enabled,No,"Catalog, Search",None,No,0,Safari,300mmX300mm,8,Parking Tiles,Safari,"<h3>Per box</h3>
<h3>Each box contain 8 pcs these will cover 8 sq ft</h3>",,,,,,,,,1000,0,1,0,0,1,1,1,0,1,1,,0,1,0,1,0,1,0,1,0,0,0,1,Safari 6014,0,simple,,
admin,base,WallTile,simple,"81,91,192",Bktpd15,0,Safari 6015,,,/6/0/6015.jpg,/6/0/6015.jpg,/6/0/6015.jpg,safari-6015,safari-6015.html,No layout updates,Block after Info Column,,,,,Use config,Use config,No,400,,8,,Enabled,No,"Catalog, Search",None,No,0,Safari,300mmX300mm,8,Parking Tiles,Safari,"<h3>Per box</h3>
<h3>Each box contain 8 pcs these will cover 8 sq ft</h3>",,,,,,,,,1000,0,1,0,0,1,1,1,0,1,1,,0,1,0,1,0,1,0,1,0,0,0,1,Safari 6015,0,simple,,
admin,base,WallTile,simple,"81,91,192",Bktpd17,0,Safari 6017,,,/6/0/6017.jpg,/6/0/6017.jpg,/6/0/6017.jpg,safari-6017,safari-6017.html,No layout updates,Block after Info Column,,,,,Use config,Use config,No,400,,8,,Enabled,No,"Catalog, Search",None,No,0,Safari,300mmX300mm,8,Parking Tiles,Safari,"<h3>Per box</h3>
<h3>Each box contain 8 pcs these will cover 8 sq ft</h3>",,,,,,,,,1000,0,1,0,0,1,1,1,0,1,1,,0,1,0,1,0,1,0,1,0,0,0,1,Safari 6017,0,simple,,
admin,base,WallTile,simple,"81,91,192",Bktpd19,0,Safari 6019,,,/6/0/6019.jpg,/6/0/6019.jpg,/6/0/6019.jpg,safari-6019,safari-6019.html,No layout updates,Block after Info Column,,,,,Use config,Use config,No,400,,8,,Enabled,No,"Catalog, Search",None,No,0,Safari,300mmX300mm,8,Parking Tiles,Safari,"<h3>Per box</h3>
<h3>Each box contain 8 pcs these will cover 8 sq ft</h3>",,,,,,,,,1000,0,1,0,0,1,1,1,0,1,1,,0,1,0,1,0,1,0,1,0,0,0,1,Safari 6019,0,simple,,
admin,base,WallTile,simple,"81,91,192",Bktpd23,0,Safari 6023,,,/6/0/6023.jpg,/6/0/6023.jpg,/6/0/6023.jpg,safari-6023,safari-6023.html,No layout updates,Block after Info Column,,,,,Use config,Use config,No,400,,8,,Enabled,No,"Catalog, Search",None,No,0,Safari,300mmX300mm,8,Parking Tiles,Safari,"<h3>Per box</h3>
<h3>Each box contain 8 pcs these will cover 8 sq ft</h3>",,,,,,,,,1000,0,1,0,0,1,1,1,0,1,1,,0,1,0,1,0,1,0,1,0,0,0,1,Safari 6023,0,simple,,
admin,base,WallTile,simple,"81,91,192",Bktpd24,0,Safari 6024,,,/6/0/6024.jpg,/6/0/6024.jpg,/6/0/6024.jpg,safari-6024,safari-6024.html,No layout updates,Block after Info Column,,,,,Use config,Use config,No,400,,8,,Enabled,No,"Catalog, Search",None,No,0,Safari,300mmX300mm,8,Parking Tiles,Safari,"<h3>Per box</h3>
<h3>Each box contain 8 pcs these will cover 8 sq ft</h3>",,,,,,,,,1000,0,1,0,0,1,1,1,0,1,1,,0,1,0,1,0,1,0,1,0,0,0,1,Safari 6024,0,simple,,
admin,base,WallTile,simple,"81,91,192",Bktpd25,0,Safari 6025,,,/6/0/6025.jpg,/6/0/6025.jpg,/6/0/6025.jpg,safari-6025,safari-6025.html,No layout updates,Block after Info Column,,,,,Use config,Use config,No,400,,8,,Enabled,No,"Catalog, Search",None,No,0,Safari,300mmX300mm,8,Parking Tiles,Safari,"<h3>Per box</h3>
<h3>Each box contain 8 pcs these will cover 8 sq ft</h3>",,,,,,,,,1000,0,1,0,0,1,1,1,0,1,1,,0,1,0,1,0,1,0,1,0,0,0,1,Safari 6025,0,simple,,
admin,base,WallTile,simple,"81,91,192",Bktpd26,0,Safari 6026,,,/6/0/6026.jpg,/6/0/6026.jpg,/6/0/6026.jpg,safari-6026,safari-6026.html,No layout updates,Block after Info Column,,,,,Use config,Use config,No,400,,8,,Enabled,No,"Catalog, Search",None,No,0,Safari,300mmX300mm,8,Parking Tiles,Safari,"<h3>Per box</h3>
<h3>Each box contain 8 pcs these will cover 8 sq ft</h3>",,,,,,,,,1000,0,1,0,0,1,1,1,0,1,1,,0,1,0,1,0,1,0,1,0,0,0,1,Safari 6026,0,simple,,
admin,base,WallTile,simple,"81,91,192",Bktpd27,0,Safari 6027,,,/6/0/6027.jpg,/6/0/6027.jpg,/6/0/6027.jpg,safari-6027,safari-6027.html,No layout updates,Block after Info Column,,,,,Use config,Use config,No,400,,8,,Enabled,No,"Catalog, Search",None,No,0,Safari,300mmX300mm,8,Parking Tiles,Safari,"<h3>Per box</h3>
<h3>Each box contain 8 pcs these will cover 8 sq ft</h3>",,,,,,,,,1000,0,1,0,0,1,1,1,0,1,1,,0,1,0,1,0,1,0,1,0,0,0,1,Safari 6027,0,simple,,
admin,base,WallTile,simple,"81,91,192",Bktpd29,0,Safari 6029,,,/6029.jpg,/6029.jpg,/6029.jpg,safari-6029,,No layout updates,Block after Info Column,,,,,Use config,Use config,No,400,,8,,Enabled,No,"Catalog, Search",None,No,0,Safari,300mmX300mm,8,Parking Tiles,Safari,"<h3>Per box</h3>
<h3>Each box contain 8 pcs these will cover 8 sq ft</h3>",,,,,,,,,1000,0,1,0,0,1,1,1,0,1,1,,0,1,0,1,0,1,0,1,0,0,0,1,Safari 6029,0,simple,,
admin,base,WallTile,simple,"81,91,192",Bktpd30,0,Safari 6030,,,/6030.jpg,/6030.jpg,/6030.jpg,safari-6030,,No layout updates,Block after Info Column,,,,,Use config,Use config,No,400,,8,,Enabled,No,"Catalog, Search",None,No,0,Safari,300mmX300mm,8,Parking Tiles,Safari,"<h3>Per box</h3>
<h3>Each box contain 8 pcs these will cover 8 sq ft</h3>",,,,,,,,,1000,0,1,0,0,1,1,1,0,1,1,,0,1,0,1,0,1,0,1,0,0,0,1,Safari 6030,0,simple,,
admin,base,WallTile,simple,"81,91,192",Bktpd31,0,Safari 6031,,,/6031.jpg,/6031.jpg,/6031.jpg,safari-6031,,No layout updates,Block after Info Column,,,,,Use config,Use config,No,400,,8,,Enabled,No,"Catalog, Search",None,No,0,Safari,300mmX300mm,8,Parking Tiles,Safari,"<h3>Per box</h3>
<h3>Each box contain 8 pcs these will cover 8 sq ft</h3>",,,,,,,,,1000,0,1,0,0,1,1,1,0,1,1,,0,1,0,1,0,1,0,1,0,0,0,1,Safari 6031,0,simple,,
admin,base,WallTile,simple,"81,91,192",Bktpd32,0,Safari 6032,,,/6032.jpg,/6032.jpg,/6032.jpg,safari-6032,,No layout updates,Block after Info Column,,,,,Use config,Use config,No,400,,8,,Enabled,No,"Catalog, Search",None,No,0,Safari,300mmX300mm,8,Parking Tiles,Safari,"<h3>Per box</h3>
<h3>Each box contain 8 pcs these will cover 8 sq ft</h3>",,,,,,,,,1000,0,1,0,0,1,1,1,0,1,1,,0,1,0,1,0,1,0,1,0,0,0,1,Safari 6032,0,simple,,
admin,base,WallTile,simple,"81,91,192",Bktpd33,0,Safari 6033,,,/6033.jpg,/6033.jpg,/6033.jpg,safari-6033,,No layout updates,Block after Info Column,,,,,Use config,Use config,No,400,,8,,Enabled,No,"Catalog, Search",None,No,0,Safari,300mmX300mm,8,Parking Tiles,Safari,"<h3>Per box</h3>
<h3>Each box contain 8 pcs these will cover 8 sq ft</h3>",,,,,,,,,1000,0,1,0,0,1,1,1,0,1,1,,0,1,0,1,0,1,0,1,0,0,0,1,Safari 6033,0,simple,,
admin,base,WallTile,simple,"81,91,192",Bktpd35,0,Safari 6035,,,/6035.jpg,/6035.jpg,/6035.jpg,safari-6035,,No layout updates,Block after Info Column,,,,,Use config,Use config,No,400,,8,,Enabled,No,"Catalog, Search",None,No,0,Safari,300mmX300mm,8,Parking Tiles,Safari,"<h3>Per box</h3>
<h3>Each box contain 8 pcs these will cover 8 sq ft</h3>",,,,,,,,,1000,0,1,0,0,1,1,1,0,1,1,,0,1,0,1,0,1,0,1,0,0,0,1,Safari 6035,0,simple,,
admin,base,WallTile,simple,"81,91,192",Bktpd36,0,Safari 6036,,,/6036.jpg,/6036.jpg,/6036.jpg,safari-6036,,No layout updates,Block after Info Column,,,,,Use config,Use config,No,400,,8,,Enabled,No,"Catalog, Search",None,No,0,Safari,300mmX300mm,8,Parking Tiles,Safari,"<h3>Per box</h3>
<h3>Each box contain 8 pcs these will cover 8 sq ft</h3>",,,,,,,,,1000,0,1,0,0,1,1,1,0,1,1,,0,1,0,1,0,1,0,1,0,0,0,1,Safari 6036,0,simple,,
admin,base,WallTile,simple,"81,91,192",Bktpd38,0,Safari 6038,,,/6038.jpg,/6038.jpg,/6038.jpg,safari-6038,,No layout updates,Block after Info Column,,,,,Use config,Use config,No,400,,8,,Enabled,No,"Catalog, Search",None,No,0,Safari,300mmX300mm,8,Parking Tiles,Safari,"<h3>Per box</h3>
<h3>Each box contain 8 pcs these will cover 8 sq ft</h3>",,,,,,,,,1000,0,1,0,0,1,1,1,0,1,1,,0,1,0,1,0,1,0,1,0,0,0,1,Safari 6038,0,simple,,
admin,base,WallTile,simple,"81,91,192",Bktpd39,0,Safari 6039,,,/6039.jpg,/6039.jpg,/6039.jpg,safari-6039,,No layout updates,Block after Info Column,,,,,Use config,Use config,No,400,,8,,Enabled,No,"Catalog, Search",None,No,0,Safari,300mmX300mm,8,Parking Tiles,Safari,"<h3>Per box</h3>
<h3>Each box contain 8 pcs these will cover 8 sq ft</h3>",,,,,,,,,1000,0,1,0,0,1,1,1,0,1,1,,0,1,0,1,0,1,0,1,0,0,0,1,Safari 6039,0,simple,,
admin,base,WallTile,simple,"81,91,192",Bktpd40,0,Safari 6040,,,/6040.jpg,/6040.jpg,/6040.jpg,safari-6040,,No layout updates,Block after Info Column,,,,,Use config,Use config,No,400,,8,,Enabled,No,"Catalog, Search",None,No,0,Safari,300mmX300mm,8,Parking Tiles,Safari,"<h3>Per box</h3>
<h3>Each box contain 8 pcs these will cover 8 sq ft</h3>",,,,,,,,,1000,0,1,0,0,1,1,1,0,1,1,,0,1,0,1,0,1,0,1,0,0,0,1,Safari 6040,0,simple,,
admin,base,WallTile,simple,"81,91,192",Bktpd41,0,Safari 6041,,,/6041.jpg,/6041.jpg,/6041.jpg,safari-6041,,No layout updates,Block after Info Column,,,,,Use config,Use config,No,400,,8,,Enabled,No,"Catalog, Search",None,No,0,Safari,300mmX300mm,8,Parking Tiles,Safari,"<h3>Per box</h3>
<h3>Each box contain 8 pcs these will cover 8 sq ft</h3>",,,,,,,,,1000,0,1,0,0,1,1,1,0,1,1,,0,1,0,1,0,1,0,1,0,0,0,1,Safari 6041,0,simple,,
admin,base,WallTile,simple,"81,91,192",Bktpd42,0,Safari 6042,,,/6042.jpg,/6042.jpg,/6042.jpg,safari-6042,,No layout updates,Block after Info Column,,,,,Use config,Use config,No,400,,8,,Enabled,No,"Catalog, Search",None,No,0,Safari,300mmX300mm,8,Parking Tiles,Safari,"<h3>Per box</h3>
<h3>Each box contain 8 pcs these will cover 8 sq ft</h3>",,,,,,,,,1000,0,1,0,0,1,1,1,0,1,1,,0,1,0,1,0,1,0,1,0,0,0,1,Safari 6042,0,simple,,
admin,base,WallTile,simple,"81,91,192",Bktpd43,0,Safari 6043,,,/6043.jpg,/6043.jpg,/6043.jpg,safari-6043,,No layout updates,Block after Info Column,,,,,Use config,Use config,No,400,,8,,Enabled,No,"Catalog, Search",None,No,0,Safari,300mmX300mm,8,Parking Tiles,Safari,"<h3>Per box</h3>
<h3>Each box contain 8 pcs these will cover 8 sq ft</h3>",,,,,,,,,1000,0,1,0,0,1,1,1,0,1,1,,0,1,0,1,0,1,0,1,0,0,0,1,Safari 6043,0,simple,,
admin,base,WallTile,simple,"81,91,192",Bktpd44,0,Safari 6044,,,/6044.jpg,/6044.jpg,/6044.jpg,safari-6044,,No layout updates,Block after Info Column,,,,,Use config,Use config,No,400,,8,,Enabled,No,"Catalog, Search",None,No,0,Safari,300mmX300mm,8,Parking Tiles,Safari,"<h3>Per box</h3>
<h3>Each box contain 8 pcs these will cover 8 sq ft</h3>",,,,,,,,,1000,0,1,0,0,1,1,1,0,1,1,,0,1,0,1,0,1,0,1,0,0,0,1,Safari 6044,0,simple,,
admin,base,WallTile,simple,"81,91,192",Bktpd45,0,Safari 6045,,,/6045.jpg,/6045.jpg,/6045.jpg,safari-6045,,No layout updates,Block after Info Column,,,,,Use config,Use config,No,400,,8,,Enabled,No,"Catalog, Search",None,No,0,Safari,300mmX300mm,8,Parking Tiles,Safari,"<h3>Per box</h3>
<h3>Each box contain 8 pcs these will cover 8 sq ft</h3>",,,,,,,,,1000,0,1,0,0,1,1,1,0,1,1,,0,1,0,1,0,1,0,1,0,0,0,1,Safari 6045,0,simple,,
