store,websites,attribute_set,type,category_ids,sku,has_options,name,meta_title,meta_description,image,small_image,thumbnail,url_key,url_path,custom_design,page_layout,options_container,image_label,small_image_label,thumbnail_label,country_of_manufacture,msrp_enabled,msrp_display_actual_price_type,gift_message_available,price,special_price,weight,msrp,status,is_recurring,visibility,tax_class_id,is_imported,featured,walltilebrand,tilesize,coveredsqft,description,short_description,meta_keyword,custom_layout_update,special_from_date,special_to_date,news_from_date,news_to_date,custom_design_from,custom_design_to,qty,min_qty,use_config_min_qty,is_qty_decimal,backorders,use_config_backorders,min_sale_qty,use_config_min_sale_qty,max_sale_qty,use_config_max_sale_qty,is_in_stock,low_stock_date,notify_stock_qty,use_config_notify_stock_qty,manage_stock,use_config_manage_stock,stock_status_changed_auto,use_config_qty_increments,qty_increments,use_config_enable_qty_inc,enable_qty_increments,is_decimal_divided,stock_status_changed_automatically,use_config_enable_qty_increments,product_name,store_id,product_type_id,product_status_changed,product_changed_websites
admin,base,WallTile,simple,"6,81,45,149",Bkctvde01,0,Re 821 Casalino,,,/r/e/re_821_casalino.jpg,/r/e/re_821_casalino.jpg,/r/e/re_821_casalino.jpg,re-821-casalino,re-821-casalino.html,,No layout updates,Block after Info Column,,,, ,Use config,Use config,No,1400,,45,,Enabled,No,"Catalog, Search",None,No,0,Cera,800mmX800mm,20,Re 821 Casalino,"<h3>Per Box</h3>
<h3>Each box contain 3pcs these will cover 20sq ft</h3>",,,,,,,,,1000,0,1,0,0,1,1,1,0,1,1,,,1,0,1,0,1,0,1,0,0,0,1,Re 821 Casalino,0,simple,,
admin,base,WallTile,simple,"6,81,45,149",Bkctvde02,0,Re 824 Casargo,,,/Re 824 Casargo.jpg,/Re 824 Casargo.jpg,/Re 824 Casargo.jpg,,,,No layout updates,Block after Info Column,,,,,Use config,Use config,No,1400,,45,,Enabled,No,"Catalog, Search",None,No,0,Cera,800mmX800mm,20,Re 824 Casargo,"<h3>Per Box</h3>
<h3>Each box contain 3pcs these will cover 20sq ft</h3>",,,,,,,,,1000,0,1,0,0,1,1,1,0,1,1,,,1,0,1,0,1,0,1,0,0,0,1,Re 824 Casargo,0,simple,,
admin,base,WallTile,simple,"6,81,45,149",Bkctvde03,0,Re 825 Casazza,,,/Re 825 Casazza.jpg,/Re 825 Casazza.jpg,/Re 825 Casazza.jpg,,,,No layout updates,Block after Info Column,,,,,Use config,Use config,No,1400,,45,,Enabled,No,"Catalog, Search",None,No,0,Cera,800mmX800mm,20,Re 825 Casazza,"<h3>Per Box</h3>
<h3>Each box contain 3pcs these will cover 20sq ft</h3>",,,,,,,,,1000,0,1,0,0,1,1,1,0,1,1,,,1,0,1,0,1,0,1,0,0,0,1,Re 825 Casazza,0,simple,,
admin,base,WallTile,simple,"6,81,45,149",Bkctvde04,0,Re 826 Cascina,,,/Re 826 Cascina.jpg,/Re 826 Cascina.jpg,/Re 826 Cascina.jpg,,,,No layout updates,Block after Info Column,,,,,Use config,Use config,No,1400,,45,,Enabled,No,"Catalog, Search",None,No,0,Cera,800mmX800mm,20,Re 826 Cascina,"<h3>Per Box</h3>
<h3>Each box contain 3pcs these will cover 20sq ft</h3>",,,,,,,,,1000,0,1,0,0,1,1,1,0,1,1,,,1,0,1,0,1,0,1,0,0,0,1,Re 826 Cascina,0,simple,,
admin,base,WallTile,simple,"6,81,45,149",Bkctvde05,0,Re 827 Cassena,,,/Re 827 Cassena.jpg,/Re 827 Cassena.jpg,/Re 827 Cassena.jpg,,,,No layout updates,Block after Info Column,,,,,Use config,Use config,No,1400,,45,,Enabled,No,"Catalog, Search",None,No,0,Cera,800mmX800mm,20,Re 827 Cassena,"<h3>Per Box</h3>
<h3>Each box contain 3pcs these will cover 20sq ft</h3>",,,,,,,,,1000,0,1,0,0,1,1,1,0,1,1,,,1,0,1,0,1,0,1,0,0,0,1,Re 827 Cassena,0,simple,,
admin,base,WallTile,simple,"6,81,45,149",Bkctvde06,0,Re 831 Casina,,,/Re 831 Casina.jpg,/Re 831 Casina.jpg,/Re 831 Casina.jpg,,,,No layout updates,Block after Info Column,,,,,Use config,Use config,No,1400,,45,,Enabled,No,"Catalog, Search",None,No,0,Cera,800mmX800mm,20,Re 831 Casina,"<h3>Per Box</h3>
<h3>Each box contain 3pcs these will cover 20sq ft</h3>",,,,,,,,,1000,0,1,0,0,1,1,1,0,1,1,,,1,0,1,0,1,0,1,0,0,0,1,Re 831 Casina,0,simple,,
admin,base,WallTile,simple,"6,81,45,149",Bkctvde07,0,Re 832 Carinol,,,/Re 832 Carinol.jpg,/Re 832 Carinol.jpg,/Re 832 Carinol.jpg,,,,No layout updates,Block after Info Column,,,,,Use config,Use config,No,1400,,45,,Enabled,No,"Catalog, Search",None,No,0,Cera,800mmX800mm,20,Re 832 Carinol,"<h3>Per Box</h3>
<h3>Each box contain 3pcs these will cover 20sq ft</h3>",,,,,,,,,1000,0,1,0,0,1,1,1,0,1,1,,,1,0,1,0,1,0,1,0,0,0,1,Re 832 Carinol,0,simple,,
admin,base,WallTile,simple,"6,81,45,149",Bkctvdf01,0,Rf 603 Eldo,,,/r/f/rf_603_eldo.jpg,/r/f/rf_603_eldo.jpg,/r/f/rf_603_eldo.jpg,rf-603-eldo,rf-603-eldo.html,,No layout updates,Block after Info Column,,,, ,Use config,Use config,No,1200,,31,,Enabled,No,"Catalog, Search",None,No,0,Cera,600mmX600mm,16,Rf 603 Eldo,"<h3>Per Box</h3>
<h3>Each box contain 4pcs these will cover 16sq ft</h3>",,,,,,,,,1000,0,1,0,0,1,1,1,0,1,1,,,1,0,1,0,1,0,1,0,0,0,1,Rf 603 Eldo,0,simple,,
admin,base,WallTile,simple,"6,81,45,149",Bkctvdf02,0,Rf 604 Enrich,,,/Rf 604 Enrich.jpg,/Rf 604 Enrich.jpg,/Rf 604 Enrich.jpg,,,,No layout updates,Block after Info Column,,,,,Use config,Use config,No,1200,,31,,Enabled,No,"Catalog, Search",None,No,0,Cera,600mmX600mm,16,Rf 604 Enrich,"<h3>Per Box</h3>
<h3>Each box contain 4pcs these will cover 16sq ft</h3>",,,,,,,,,1000,0,1,0,0,1,1,1,0,1,1,,,1,0,1,0,1,0,1,0,0,0,1,Rf 604 Enrich,0,simple,,
admin,base,WallTile,simple,"6,81,45,149",Bkctvdf03,0,Rf 607 Erba,,,/Rf 607 Erba.jpg,/Rf 607 Erba.jpg,/Rf 607 Erba.jpg,,,,No layout updates,Block after Info Column,,,,,Use config,Use config,No,1200,,31,,Enabled,No,"Catalog, Search",None,No,0,Cera,600mmX600mm,16,Rf 607 Erba,"<h3>Per Box</h3>
<h3>Each box contain 4pcs these will cover 16sq ft</h3>",,,,,,,,,1000,0,1,0,0,1,1,1,0,1,1,,,1,0,1,0,1,0,1,0,0,0,1,Rf 607 Erba,0,simple,,
admin,base,WallTile,simple,"6,81,45,149",Bkctvdf04,0,Rf 612 Este,,,/Rf 612 Este.jpg,/Rf 612 Este.jpg,/Rf 612 Este.jpg,,,,No layout updates,Block after Info Column,,,,,Use config,Use config,No,1200,,31,,Enabled,No,"Catalog, Search",None,No,0,Cera,600mmX600mm,16,Rf 612 Este,"<h3>Per Box</h3>
<h3>Each box contain 4pcs these will cover 16sq ft</h3>",,,,,,,,,1000,0,1,0,0,1,1,1,0,1,1,,,1,0,1,0,1,0,1,0,0,0,1,Rf 612 Este,0,simple,,
admin,base,WallTile,simple,"6,81,45,149",Bkctvdf05,0,Rf 614 Enego,,,/Rf 614 Enego.jpg,/Rf 614 Enego.jpg,/Rf 614 Enego.jpg,,,,No layout updates,Block after Info Column,,,,,Use config,Use config,No,1200,,31,,Enabled,No,"Catalog, Search",None,No,0,Cera,600mmX600mm,16,Rf 614 Enego,"<h3>Per Box</h3>
<h3>Each box contain 4pcs these will cover 16sq ft</h3>",,,,,,,,,1000,0,1,0,0,1,1,1,0,1,1,,,1,0,1,0,1,0,1,0,0,0,1,Rf 614 Enego,0,simple,,
admin,base,WallTile,simple,"6,81,45,149",Bkctvdf06,0,Rf 615 Ellera,,,/Rf 615 Ellera.jpg,/Rf 615 Ellera.jpg,/Rf 615 Ellera.jpg,,,,No layout updates,Block after Info Column,,,,,Use config,Use config,No,1200,,31,,Enabled,No,"Catalog, Search",None,No,0,Cera,600mmX600mm,16,Rf 615 Ellera,"<h3>Per Box</h3>
<h3>Each box contain 4pcs these will cover 16sq ft</h3>",,,,,,,,,1000,0,1,0,0,1,1,1,0,1,1,,,1,0,1,0,1,0,1,0,0,0,1,Rf 615 Ellera,0,simple,,
admin,base,WallTile,simple,"6,81,45,149",Bkctvdf07,0,Rf 616 Edolo,,,/Rf 616 Edolo.jpg,/Rf 616 Edolo.jpg,/Rf 616 Edolo.jpg,,,,No layout updates,Block after Info Column,,,,,Use config,Use config,No,1200,,31,,Enabled,No,"Catalog, Search",None,No,0,Cera,600mmX600mm,16,Rf 616 Edolo,"<h3>Per Box</h3>
<h3>Each box contain 4pcs these will cover 16sq ft</h3>",,,,,,,,,1000,0,1,0,0,1,1,1,0,1,1,,,1,0,1,0,1,0,1,0,0,0,1,Rf 616 Edolo,0,simple,,
admin,base,WallTile,simple,"6,81,45,149",Bkctvdf08,0,Rf 617 Egidio,,,/Rf 617 Egidio.jpg,/Rf 617 Egidio.jpg,/Rf 617 Egidio.jpg,,,,No layout updates,Block after Info Column,,,,,Use config,Use config,No,1200,,31,,Enabled,No,"Catalog, Search",None,No,0,Cera,600mmX600mm,16,Rf 617 Egidio,"<h3>Per Box</h3>
<h3>Each box contain 4pcs these will cover 16sq ft</h3>",,,,,,,,,1000,0,1,0,0,1,1,1,0,1,1,,,1,0,1,0,1,0,1,0,0,0,1,Rf 617 Egidio,0,simple,,
admin,base,WallTile,simple,"6,81,45,149",Bkctvdf09,0,Rf 618 Egizi,,,/Rf 618 Egizi.jpg,/Rf 618 Egizi.jpg,/Rf 618 Egizi.jpg,,,,No layout updates,Block after Info Column,,,,,Use config,Use config,No,1200,,31,,Enabled,No,"Catalog, Search",None,No,0,Cera,600mmX600mm,16,Rf 618 Egizi,"<h3>Per Box</h3>
<h3>Each box contain 4pcs these will cover 16sq ft</h3>",,,,,,,,,1000,0,1,0,0,1,1,1,0,1,1,,,1,0,1,0,1,0,1,0,0,0,1,Rf 618 Egizi,0,simple,,
