store,websites,attribute_set,type,category_ids,sku,has_options,name,meta_title,meta_description,image,small_image,thumbnail,url_key,url_path,custom_design,page_layout,options_container,image_label,small_image_label,thumbnail_label,country_of_manufacture,msrp_enabled,msrp_display_actual_price_type,gift_message_available,price,special_price,weight,msrp,status,is_recurring,visibility,tax_class_id,is_imported,featured,ewctype,ewcbrand,cock,cockfunction,description,short_description,meta_keyword,custom_layout_update,special_from_date,special_to_date,news_from_date,news_to_date,custom_design_from,custom_design_to,qty,min_qty,use_config_min_qty,is_qty_decimal,backorders,use_config_backorders,min_sale_qty,use_config_min_sale_qty,max_sale_qty,use_config_max_sale_qty,is_in_stock,low_stock_date,notify_stock_qty,use_config_notify_stock_qty,manage_stock,use_config_manage_stock,stock_status_changed_auto,use_config_qty_increments,qty_increments,use_config_enable_qty_inc,enable_qty_increments,is_decimal_divided,stock_status_changed_automatically,use_config_enable_qty_increments,product_name,store_id,product_type_id,product_status_changed,product_changed_websites
admin,base,Bathroom,simple,"66,117,126",Bkcbef01,0,Christina 2095,,,/c/h/christina_2095_1.jpg,/c/h/christina_2095_1.jpg,/c/h/christina_2095_1.jpg,christina-2095,christina-2095.html,,No layout updates,Block after Info Column,,,, ,Use config,Use config,No,20295,,1,,Enabled,No,"Catalog, Search",None,No,0,Single Piece,cera,,,"One Piece EWC S Concealed
705 x 370 x 770 mm","One Piece EWC S Concealed
705 x 370 x 770 mm",,,,,,,,,1000,0,1,0,0,1,1,1,0,1,1,,,1,0,1,0,1,0,1,0,0,0,1,Christina 2095,0,simple,,
admin,base,Bathroom,simple,"66,117,126",Bkcbef10,0,Cera Campbell 3141,,,/Campbell 3141.jpg,/Campbell 3141.jpg,/Campbell 3141.jpg,,,,No layout updates,Block after Info Column,,,,,Use config,Use config,No,15145,,1,,Enabled,No,"Catalog, Search",None,No,0,Single Piece,cera,,,Campbell 3141,Campbell 3141,,,,,,,,,1000,0,1,0,0,1,1,1,0,1,1,,,1,0,1,0,1,0,1,0,0,0,1,Cera Campbell 3141,0,simple,,
admin,base,Bathroom,simple,"66,117,126",Bkcbef03,0,Cera Capstan 2068,,,/Capstan 2068.jpg,/Capstan 2068.jpg,/Capstan 2068.jpg,,,,No layout updates,Block after Info Column,,,,,Use config,Use config,No,17395,,1,,Enabled,No,"Catalog, Search",None,No,0,Single Piece,cera,,,Capstan 2068,Capstan 2068,,,,,,,,,1000,0,1,0,0,1,1,1,0,1,1,,,1,0,1,0,1,0,1,0,0,0,1,Cera Capstan 2068,0,simple,,
admin,base,Bathroom,simple,"66,117,126",Bkcbef04,0,Cera Charisma 2067,,,/Charisma 2067.jpg,/Charisma 2067.jpg,/Charisma 2067.jpg,,,,No layout updates,Block after Info Column,,,,,Use config,Use config,No,17095,,1,,Enabled,No,"Catalog, Search",None,No,0,Single Piece,cera,,,Charisma 2067,Charisma 2067,,,,,,,,,1000,0,1,0,0,1,1,1,0,1,1,,,1,0,1,0,1,0,1,0,0,0,1,Cera Charisma 2067,0,simple,,
admin,base,Bathroom,simple,"66,117,126",Bkcbef05,0,Cera Clayton 2043,,,/Clayton 2043.jpg,/Clayton 2043.jpg,/Clayton 2043.jpg,,,,No layout updates,Block after Info Column,,,,,Use config,Use config,No,17645,,1,,Enabled,No,"Catalog, Search",None,No,0,Single Piece,cera,,,Clayton 2043,Clayton 2043,,,,,,,,,1000,0,1,0,0,1,1,1,0,1,1,,,1,0,1,0,1,0,1,0,0,0,1,Cera Clayton 2043,0,simple,,
admin,base,Bathroom,simple,"66,117,126",Bkcbef06,0,Cera Clive 2076,,,/Clive 2076.jpg,/Clive 2076.jpg,/Clive 2076.jpg,,,,No layout updates,Block after Info Column,,,,,Use config,Use config,No,21095,,1,,Enabled,No,"Catalog, Search",None,No,0,Single Piece,cera,,,Clive 2076,Clive 2076,,,,,,,,,1000,0,1,0,0,1,1,1,0,1,1,,,1,0,1,0,1,0,1,0,0,0,1,Cera Clive 2076,0,simple,,
admin,base,Bathroom,simple,"66,117,126",Bkcbef07,0,Cera Clover 2070,,,/Clover 2070.jpg,/Clover 2070.jpg,/Clover 2070.jpg,,,,No layout updates,Block after Info Column,,,,,Use config,Use config,No,15095,,1,,Enabled,No,"Catalog, Search",None,No,0,Single Piece,cera,,,Clover 2070,Clover 2070,,,,,,,,,1000,0,1,0,0,1,1,1,0,1,1,,,1,0,1,0,1,0,1,0,0,0,1,Cera Clover 2070,0,simple,,
admin,base,Bathroom,simple,"66,117,126",Bkcbef08,0,Cera Codi 2069,,,/Codi 2069.jpg,/Codi 2069.jpg,/Codi 2069.jpg,,,,No layout updates,Block after Info Column,,,,,Use config,Use config,No,13795,,1,,Enabled,No,"Catalog, Search",None,No,0,Single Piece,cera,,,Codi 2069,Codi 2069,,,,,,,,,1000,0,1,0,0,1,1,1,0,1,1,,,1,0,1,0,1,0,1,0,0,0,1,Cera Codi 2069,0,simple,,
admin,base,Bathroom,simple,"66,117,126",Bkcbef09,0,Cera Cristy 2063,,,/Cristy 2063.jpg,/Cristy 2063.jpg,/Cristy 2063.jpg,,,,No layout updates,Block after Info Column,,,,,Use config,Use config,No,17095,,1,,Enabled,No,"Catalog, Search",None,No,0,Single Piece,cera,,,Cristy 2063,Cristy 2063,,,,,,,,,1000,0,1,0,0,1,1,1,0,1,1,,,1,0,1,0,1,0,1,0,0,0,1,Cera Cristy 2063,0,simple,,
admin,base,Bathroom,simple,"66,117,126",Bkcbef02,0,Campbell 2098,,,/c/a/campbell_2098.jpg,/c/a/campbell_2098.jpg,/c/a/campbell_2098.jpg,campbell-2098,campbell-2098.html,,No layout updates,Block after Info Column,,,, ,Use config,Use config,No,6045,,1,,Enabled,No,"Catalog, Search",None,No,0,Two Piece,cera,,,"2098 EWC S Concealed
6 55 x 370 x 770 mm","2098 EWC S Concealed
6 55 x 370 x 770 mm",,,,,,,,,1000,0,1,0,0,1,1,1,0,1,1,,,1,0,1,0,1,0,1,0,0,0,1,Campbell 2098,0,simple,,
admin,base,Bathroom,simple,"66,117,126",Bkcbef11,0,Cera Calibre 2004,,,/Calibre 2004.jpg,/Calibre 2004.jpg,/Calibre 2004.jpg,,,,No layout updates,Block after Info Column,,,,,Use config,Use config,No,2795,,1,,Enabled,No,"Catalog, Search",None,No,0,Two Piece,cera,,,Calibre 2004,Calibre 2004,,,,,,,,,1000,0,1,0,0,1,1,1,0,1,1,,,1,0,1,0,1,0,1,0,0,0,1,Cera Calibre 2004,0,simple,,
admin,base,Bathroom,simple,"66,117,126",Bkcbef12,0,Cera Calibre Deluxe 3154,,,/Calibre Deluxe 3154.jpg,/Calibre Deluxe 3154.jpg,/Calibre Deluxe 3154.jpg,,,,No layout updates,Block after Info Column,,,,,Use config,Use config,No,3795,,1,,Enabled,No,"Catalog, Search",None,No,0,Two Piece,cera,,,Calibre Deluxe 3154,Calibre Deluxe 3154,,,,,,,,,1000,0,1,0,0,1,1,1,0,1,1,,,1,0,1,0,1,0,1,0,0,0,1,Cera Calibre Deluxe 3154,0,simple,,
admin,base,Bathroom,simple,"66,117,126",Bkcbef13,0,Cera Callaghan 3100,,,/Callaghan 3100.jpg,/Callaghan 3100.jpg,/Callaghan 3100.jpg,,,,No layout updates,Block after Info Column,,,,,Use config,Use config,No,3295,,1,,Enabled,No,"Catalog, Search",None,No,0,Two Piece,cera,,,Callaghan 3100,Callaghan 3100,,,,,,,,,1000,0,1,0,0,1,1,1,0,1,1,,,1,0,1,0,1,0,1,0,0,0,1,Cera Callaghan 3100,0,simple,,
admin,base,Bathroom,simple,"66,117,126",Bkcbef14,0,Cera Clair 2015,,,/clair 2015.jpg,/clair 2015.jpg,/clair 2015.jpg,,,,No layout updates,Block after Info Column,,,,,Use config,Use config,No,4545,,1,,Enabled,No,"Catalog, Search",None,No,0,Two Piece,cera,,,clair 2015,clair 2015,,,,,,,,,1000,0,1,0,0,1,1,1,0,1,1,,,1,0,1,0,1,0,1,0,0,0,1,Cera Clair 2015,0,simple,,
admin,base,Bathroom,simple,"66,117,126",Bkcbef15,0,Cera Clair Deluxe 2025,,,/Clair Deluxe 2025.jpg,/Clair Deluxe 2025.jpg,/Clair Deluxe 2025.jpg,,,,No layout updates,Block after Info Column,,,,,Use config,Use config,No,6295,,1,,Enabled,No,"Catalog, Search",None,No,0,Two Piece,cera,,,Clair Deluxe 2025,Clair Deluxe 2025,,,,,,,,,1000,0,1,0,0,1,1,1,0,1,1,,,1,0,1,0,1,0,1,0,0,0,1,Cera Clair Deluxe 2025,0,simple,,
admin,base,Bathroom,simple,"66,117,126",Bkcbef16,0,Cera Cruse 2018,,,/Cruse 2018.jpg,/Cruse 2018.jpg,/Cruse 2018.jpg,,,,No layout updates,Block after Info Column,,,,,Use config,Use config,No,6195,,1,,Enabled,No,"Catalog, Search",None,No,0,Two Piece,cera,,,Cruse 2018,Cruse 2018,,,,,,,,,1000,0,1,0,0,1,1,1,0,1,1,,,1,0,1,0,1,0,1,0,0,0,1,Cera Cruse 2018,0,simple,,
admin,base,Bathroom,simple,"66,117,125",Bkcbew01,0,Cadrain 3129,,,/c/a/cadrain_3129.jpg,/c/a/cadrain_3129.jpg,/c/a/cadrain_3129.jpg,cadrain-3129,cadrain-3129.html,,No layout updates,Block after Info Column,,,, ,Use config,Use config,No,20445,,1,,Enabled,No,"Catalog, Search",None,No,0,Single Piece,cera,,,"3129 EWC Wall Hung P
595 x 385 x 355 mm","3129 EWC Wall Hung P
595 x 385 x 355 mm",,,,,,,,,1000,0,1,0,0,1,1,1,0,1,1,,,1,0,1,0,1,0,1,0,0,0,1,Cadrain 3129,0,simple,,
admin,base,Bathroom,simple,"66,117,125",Bkcbew12,0,Cera Cameo 2086,,,/Cameo 2086.jpg,/Cameo 2086.jpg,/Cameo 2086.jpg,,,,No layout updates,Block after Info Column,,,, ,Use config,Use config,No,14145,,1,,Enabled,No,"Catalog, Search",None,No,0,Single Piece,cera,,,Cameo 2086,Cameo 2086,,,,,,,,,1000,0,1,0,0,1,1,1,0,1,1,,,1,0,1,0,1,0,1,0,0,0,1,Cera Cameo 2086,0,simple,,
admin,base,Bathroom,simple,"66,117,125",Bkcbew03,0,Cera Campbell 2011,,,/Campbell 2011.jpg,/Campbell 2011.jpg,/Campbell 2011.jpg,,,,No layout updates,Block after Info Column,,,, ,Use config,Use config,No,6695,,1,,Enabled,No,"Catalog, Search",None,No,0,Single Piece,cera,,,Campbell 2011,Campbell 2011,,,,,,,,,1000,0,1,0,0,1,1,1,0,1,1,,,1,0,1,0,1,0,1,0,0,0,1,Cera Campbell 2011,0,simple,,
admin,base,Bathroom,simple,"66,117,125",Bkcbew04,0,Cera Carnival 2030,,,/Carnival 2030.jpg,/Carnival 2030.jpg,/Carnival 2030.jpg,,,,No layout updates,Block after Info Column,,,, ,Use config,Use config,No,7745,,1,,Enabled,No,"Catalog, Search",None,No,0,Single Piece,cera,,,Carnival 2030,Carnival 2030,,,,,,,,,1000,0,1,0,0,1,1,1,0,1,1,,,1,0,1,0,1,0,1,0,0,0,1,Cera Carnival 2030,0,simple,,
admin,base,Bathroom,simple,"66,117,125",Bkcbew05,0,Cera Cheree 2057,,,/Cheree 2057.jpg,/Cheree 2057.jpg,/Cheree 2057.jpg,,,,No layout updates,Block after Info Column,,,, ,Use config,Use config,No,9395,,1,,Enabled,No,"Catalog, Search",None,No,0,Single Piece,cera,,,Cheree 2057,Cheree 2057,,,,,,,,,1000,0,1,0,0,1,1,1,0,1,1,,,1,0,1,0,1,0,1,0,0,0,1,Cera Cheree 2057,0,simple,,
admin,base,Bathroom,simple,"66,117,125",Bkcbew06,0,Cera Clair 2033,,,/Clair 2033.jpg,/Clair 2033.jpg,/Clair 2033.jpg,,,,No layout updates,Block after Info Column,,,, ,Use config,Use config,No,4445,,1,,Enabled,No,"Catalog, Search",None,No,0,Single Piece,cera,,,Clair 2033,Clair 2033,,,,,,,,,1000,0,1,0,0,1,1,1,0,1,1,,,1,0,1,0,1,0,1,0,0,0,1,Cera Clair 2033,0,simple,,
admin,base,Bathroom,simple,"66,117,125",Bkcbew07,0,Cera Cori 3133,,,/Cori 3033.jpg,/Cori 3033.jpg,/Cori 3033.jpg,,,,No layout updates,Block after Info Column,,,, ,Use config,Use config,No,18145,,1,,Enabled,No,"Catalog, Search",None,No,0,Single Piece,cera,,,Cori 3133,Cori 3133,,,,,,,,,1000,0,1,0,0,1,1,1,0,1,1,,,1,0,1,0,1,0,1,0,0,0,1,Cera Cori 3133,0,simple,,
admin,base,Bathroom,simple,"66,117,125",Bkcbew08,0,Cera Coupe 2045,,,/Coupe 2045.jpg,/Coupe 2045.jpg,/Coupe 2045.jpg,,,,No layout updates,Block after Info Column,,,, ,Use config,Use config,No,6645,,1,,Enabled,No,"Catalog, Search",None,No,0,Single Piece,cera,,,Coupe 2045,Coupe 2045,,,,,,,,,1000,0,1,0,0,1,1,1,0,1,1,,,1,0,1,0,1,0,1,0,0,0,1,Cera Coupe 2045,0,simple,,
admin,base,Bathroom,simple,"66,117,125",Bkcbew09,0,Cera Creek 3132,,,/Creek 3132.jpg,/Creek 3132.jpg,/Creek 3132.jpg,,,,No layout updates,Block after Info Column,,,, ,Use config,Use config,No,24045,,1,,Enabled,No,"Catalog, Search",None,No,0,Single Piece,cera,,,Creek 3132,Creek 3132,,,,,,,,,1000,0,1,0,0,1,1,1,0,1,1,,,1,0,1,0,1,0,1,0,0,0,1,Cera Creek 3132,0,simple,,
admin,base,Bathroom,simple,"66,117,125",Bkcbew10,0,Cera Croma 2085,,,/Croma 2085.jpg,/Croma 2085.jpg,/Croma 2085.jpg,,,,No layout updates,Block after Info Column,,,, ,Use config,Use config,No,13095,,1,,Enabled,No,"Catalog, Search",None,No,0,Single Piece,cera,,,Croma 2085,Croma 2085,,,,,,,,,1000,0,1,0,0,1,1,1,0,1,1,,,1,0,1,0,1,0,1,0,0,0,1,Cera Croma 2085,0,simple,,
admin,base,Bathroom,simple,"66,117,125",Bkcbew11,0,Cera Cruse 2058,,,/Cruse 2058.jpg,/Cruse 2058.jpg,/Cruse 2058.jpg,,,,No layout updates,Block after Info Column,,,, ,Use config,Use config,No,5095,,1,,Enabled,No,"Catalog, Search",None,No,0,Single Piece,cera,,,Cruse 2058,Cruse 2058,,,,,,,,,1000,0,1,0,0,1,1,1,0,1,1,,,1,0,1,0,1,0,1,0,0,0,1,Cera Cruse 2058,0,simple,,
admin,base,Bathroom,simple,"66,117,125",Bkcbew02,0,Calibre 2044,,,/c/a/calibre_2044.jpg,/c/a/calibre_2044.jpg,/c/a/calibre_2044.jpg,calibre-2044,calibre-2044.html,,No layout updates,Block after Info Column,,,, ,Use config,Use config,No,4345,,1,,Enabled,No,"Catalog, Search",None,No,0,Two Piece,cera,,,"2044 EWC Wall Hung Extended P
655 x 350 x 735 mm","2044 EWC Wall Hung Extended P
655 x 350 x 735 mm",,,,,,,,,1000,0,1,0,0,1,1,1,0,1,1,,,1,0,1,0,1,0,1,0,0,0,1,Calibre 2044,0,simple,,
admin,base,Bathroom,simple,"66,117,125",Bkcbew13,0,Cera Campbell 2099,,,/Campbell 2099.jpg,/Campbell 2099.jpg,/Campbell 2099.jpg,,,,No layout updates,Block after Info Column,,,, ,Use config,Use config,No,8195,,1,,Enabled,No,"Catalog, Search",None,No,0,Two Piece,cera,,,Campbell 2099,Campbell 2099,,,,,,,,,1000,0,1,0,0,1,1,1,0,1,1,,,1,0,1,0,1,0,1,0,0,0,1,Cera Campbell 2099,0,simple,,
admin,base,Bathroom,simple,"66,117,125",Bkcbew14,0,Cera Caroline 2049,,,/Caroline 2049.jpg,/Caroline 2049.jpg,/Caroline 2049.jpg,,,,No layout updates,Block after Info Column,,,, ,Use config,Use config,No,8695,,1,,Enabled,No,"Catalog, Search",None,No,0,Two Piece,cera,,,Caroline 2049,Caroline 2049,,,,,,,,,1000,0,1,0,0,1,1,1,0,1,1,,,1,0,1,0,1,0,1,0,0,0,1,Cera Caroline 2049,0,simple,,
admin,base,Bathroom,simple,"66,117,125",Bkcbew15,0,Cera Clair 2035,,,/Clair 2035.jpg,/Clair 2035.jpg,/Clair 2035.jpg,,,,No layout updates,Block after Info Column,,,, ,Use config,Use config,No,5745,,1,,Enabled,No,"Catalog, Search",None,No,0,Two Piece,cera,,,Clair 2035,Clair 2035,,,,,,,,,1000,0,1,0,0,1,1,1,0,1,1,,,1,0,1,0,1,0,1,0,0,0,1,Cera Clair 2035,0,simple,,
admin,base,Bathroom,simple,"66,117,125",Bkcbew16,0,Cera Cruse 2038,,,/Cruse 2038.jpg,/Cruse 2038.jpg,/Cruse 2038.jpg,,,,No layout updates,Block after Info Column,,,, ,Use config,Use config,No,9795,,1,,Enabled,No,"Catalog, Search",None,No,0,Two Piece,cera,,,Cruse 2038,Cruse 2038,,,,,,,,,1000,0,1,0,0,1,1,1,0,1,1,,,1,0,1,0,1,0,1,0,0,0,1,Cera Cruse 2038,0,simple,,
