store,websites,attribute_set,type,category_ids,sku,has_options,name,meta_title,meta_description,image,small_image,thumbnail,url_key,url_path,custom_design,page_layout,options_container,image_label,small_image_label,thumbnail_label,country_of_manufacture,msrp_enabled,msrp_display_actual_price_type,gift_message_available,price,special_price,weight,msrp,status,is_recurring,visibility,tax_class_id,is_imported,featured,kitchenbrand,description,short_description,meta_keyword,custom_layout_update,special_from_date,special_to_date,news_from_date,news_to_date,custom_design_from,custom_design_to,qty,min_qty,use_config_min_qty,is_qty_decimal,backorders,use_config_backorders,min_sale_qty,use_config_min_sale_qty,max_sale_qty,use_config_max_sale_qty,is_in_stock,low_stock_date,notify_stock_qty,use_config_notify_stock_qty,manage_stock,use_config_manage_stock,stock_status_changed_auto,use_config_qty_increments,qty_increments,use_config_enable_qty_inc,enable_qty_increments,is_decimal_divided,stock_status_changed_automatically,use_config_enable_qty_increments,product_name,store_id,product_type_id,product_status_changed,product_changed_websites
admin,base,kitchen,simple,"6,91,54,157",Bkcksts01,0,Clyme cksp611,,,/c/l/clyme_cksp611_1.jpg,/c/l/clyme_cksp611_1.jpg,/c/l/clyme_cksp611_1.jpg,clyme-cksp611,clyme-cksp611.html,,No layout updates,Block after Info Column,,,, ,Use config,Use config,No,15800,,1,,Enabled,No,"Catalog, Search",None,No,0,Cera,"Clyme cksp611
","Clyme cksp611
",,,,,,,,,1000,0,1,0,0,1,1,1,0,1,1,,,1,0,1,0,1,0,1,0,0,0,1,Clyme cksp611,0,simple,,
admin,base,kitchen,simple,"6,91,54,157",Bkcksts02,0,Cotley cksp613,,,/Cotley cksp613.jpg,/Cotley cksp613.jpg,/Cotley cksp613.jpg,,,,No layout updates,Block after Info Column,,,,,Use config,Use config,No,18300,,1,,Enabled,No,"Catalog, Search",None,No,0,Cera,Cotley cksp613,Cotley cksp613,,,,,,,,,1000,0,1,0,0,1,1,1,0,1,1,,,1,0,1,0,1,0,1,0,0,0,1,Cotley cksp613,0,simple,,
admin,base,kitchen,simple,"6,91,54,157",Bkcksts03,0,Carson cksp612,,,/Carson cksp612.jpg,/Carson cksp612.jpg,/Carson cksp612.jpg,,,,No layout updates,Block after Info Column,,,,,Use config,Use config,No,24700,,1,,Enabled,No,"Catalog, Search",None,No,0,Cera,Carson cksp612,Carson cksp612,,,,,,,,,1000,0,1,0,0,1,1,1,0,1,1,,,1,0,1,0,1,0,1,0,0,0,1,Carson cksp612,0,simple,,
admin,base,kitchen,simple,"6,91,54,157",Bkcksts04,0,Calvert cksp614,,,/Calvert cksp614.jpg,/Calvert cksp614.jpg,/Calvert cksp614.jpg,,,,No layout updates,Block after Info Column,,,,,Use config,Use config,No,29330,,1,,Enabled,No,"Catalog, Search",None,No,0,Cera,Calvert cksp614,Calvert cksp614,,,,,,,,,1000,0,1,0,0,1,1,1,0,1,1,,,1,0,1,0,1,0,1,0,0,0,1,Calvert cksp614,0,simple,,
admin,base,kitchen,simple,"6,91,54,157",Bkcksts05,0,Comal cksp213,,,/Comal cksp213.jpg,/Comal cksp213.jpg,/Comal cksp213.jpg,,,,No layout updates,Block after Info Column,,,,,Use config,Use config,No,11500,,1,,Enabled,No,"Catalog, Search",None,No,0,Cera,Comal cksp213,Comal cksp213,,,,,,,,,1000,0,1,0,0,1,1,1,0,1,1,,,1,0,1,0,1,0,1,0,0,0,1,Comal cksp213,0,simple,,
admin,base,kitchen,simple,"6,91,54,157",Bkcksts06,0,Chazy cksp212,,,/Chazy cksp212.jpg,/Chazy cksp212.jpg,/Chazy cksp212.jpg,,,,No layout updates,Block after Info Column,,,,,Use config,Use config,No,12438,,1,,Enabled,No,"Catalog, Search",None,No,0,Cera,Chazy cksp212,Chazy cksp212,,,,,,,,,1000,0,1,0,0,1,1,1,0,1,1,,,1,0,1,0,1,0,1,0,0,0,1,Chazy cksp212,0,simple,,
admin,base,kitchen,simple,"6,91,54,157",Bkcksts07,0,Caddo cksp215,,,/Caddo cksp215.jpg,/Caddo cksp215.jpg,/Caddo cksp215.jpg,,,,No layout updates,Block after Info Column,,,,,Use config,Use config,No,15309,,1,,Enabled,No,"Catalog, Search",None,No,0,Cera,Caddo cksp215,Caddo cksp215,,,,,,,,,1000,0,1,0,0,1,1,1,0,1,1,,,1,0,1,0,1,0,1,0,0,0,1,Caddo cksp215,0,simple,,
admin,base,kitchen,simple,"6,91,54,157",Bkcksts08,0,Cutler cksp615,,,/Cutler cksp615.jpg,/Cutler cksp615.jpg,/Cutler cksp615.jpg,,,,No layout updates,Block after Info Column,,,,,Use config,Use config,No,21495,,1,,Enabled,No,"Catalog, Search",None,No,0,Cera,Cutler cksp615,Cutler cksp615,,,,,,,,,1000,0,1,0,0,1,1,1,0,1,1,,,1,0,1,0,1,0,1,0,0,0,1,Cutler cksp615,0,simple,,
