store,websites,attribute_set,type,category_ids,sku,has_options,name,meta_title,meta_description,image,small_image,thumbnail,url_key,url_path,page_layout,options_container,image_label,small_image_label,thumbnail_label,country_of_manufacture,msrp_enabled,msrp_display_actual_price_type,gift_message_available,price,special_price,weight,msrp,status,is_recurring,visibility,tax_class_id,is_imported,featured,walltilebrand,tilesize,coveredsqft,tiletype,description,short_description,meta_keyword,custom_layout_update,special_from_date,special_to_date,news_from_date,news_to_date,custom_design_from,custom_design_to,qty,min_qty,use_config_min_qty,is_qty_decimal,backorders,use_config_backorders,min_sale_qty,use_config_min_sale_qty,max_sale_qty,use_config_max_sale_qty,is_in_stock,low_stock_date,notify_stock_qty,use_config_notify_stock_qty,manage_stock,use_config_manage_stock,stock_status_changed_auto,use_config_qty_increments,qty_increments,use_config_enable_qty_inc,enable_qty_increments,is_decimal_divided,stock_status_changed_automatically,use_config_enable_qty_increments,product_name,store_id,product_type_id,product_status_changed,product_changed_websites
admin,base,WallTile,simple,"81,91,193",Bktpn01,0,Safari Ivory - Arck,,,/i/v/ivory_-_arck.jpg,/i/v/ivory_-_arck.jpg,/i/v/ivory_-_arck.jpg,safari-ivory-arck,safari-ivory-arck.html,No layout updates,Block after Info Column,,,, ,Use config,Use config,No,400,,10,,Enabled,No,"Catalog, Search",None,No,0,Safari,300mmX300mm,10,Parking Tiles,Safari,"<h3>Per Box</h3>
<h3>Each box contain 10 pcs these will cover 10 sq ft</h3>",,,,,,,,,1000,0,1,0,0,1,1,1,0,1,1,,0,1,0,1,0,1,0,1,0,0,0,1,Safari Ivory - Arck,0,simple,,
admin,base,WallTile,simple,"81,91,193",Bktpn02,0,Safari Teracotta - Arck,,,/Teracotta - Arck.jpg,/Teracotta - Arck.jpg,/Teracotta - Arck.jpg,,,No layout updates,Block after Info Column,,,,,Use config,Use config,No,400,,10,,Enabled,No,"Catalog, Search",None,No,0,Safari,300mmX300mm,10,Parking Tiles,Safari,"<h3>Per Box</h3>
<h3>Each box contain 10 pcs these will cover 10 sq ft</h3>",,,,,,,,,1000,0,1,0,0,1,1,1,0,1,1,,0,1,0,1,0,1,0,1,0,0,0,1,Safari Teracotta - Arck,1,simple,,
admin,base,WallTile,simple,"81,91,193",Bktpn03,0,Safari Ivory - Arrow,,,/Ivory - Arrow.jpg,/Ivory - Arrow.jpg,/Ivory - Arrow.jpg,,,No layout updates,Block after Info Column,,,,,Use config,Use config,No,400,,10,,Enabled,No,"Catalog, Search",None,No,0,Safari,300mmX300mm,10,Parking Tiles,Safari,"<h3>Per Box</h3>
<h3>Each box contain 10 pcs these will cover 10 sq ft</h3>",,,,,,,,,1000,0,1,0,0,1,1,1,0,1,1,,0,1,0,1,0,1,0,1,0,0,0,1,Safari Ivory - Arrow,2,simple,,
admin,base,WallTile,simple,"81,91,193",Bktpn04,0,Safari Teracotta - Arrow,,,/Teracotta - Arrow.jpg,/Teracotta - Arrow.jpg,/Teracotta - Arrow.jpg,,,No layout updates,Block after Info Column,,,,,Use config,Use config,No,400,,10,,Enabled,No,"Catalog, Search",None,No,0,Safari,300mmX300mm,10,Parking Tiles,Safari,"<h3>Per Box</h3>
<h3>Each box contain 10 pcs these will cover 10 sq ft</h3>",,,,,,,,,1000,0,1,0,0,1,1,1,0,1,1,,0,1,0,1,0,1,0,1,0,0,0,1,Safari Teracotta - Arrow,3,simple,,
admin,base,WallTile,simple,"81,91,193",Bktpn05,0,Safari Ivory - Checkers,,,/Ivory - Checkers.jpg,/Ivory - Checkers.jpg,/Ivory - Checkers.jpg,,,No layout updates,Block after Info Column,,,,,Use config,Use config,No,400,,10,,Enabled,No,"Catalog, Search",None,No,0,Safari,300mmX300mm,10,Parking Tiles,Safari,"<h3>Per Box</h3>
<h3>Each box contain 10 pcs these will cover 10 sq ft</h3>",,,,,,,,,1000,0,1,0,0,1,1,1,0,1,1,,0,1,0,1,0,1,0,1,0,0,0,1,Safari Ivory - Checkers,4,simple,,
admin,base,WallTile,simple,"81,91,193",Bktpn06,0,Safari Teracotta - Checkers,,,/Teracotta - Checkers.jpg,/Teracotta - Checkers.jpg,/Teracotta - Checkers.jpg,,,No layout updates,Block after Info Column,,,,,Use config,Use config,No,400,,10,,Enabled,No,"Catalog, Search",None,No,0,Safari,300mmX300mm,10,Parking Tiles,Safari,"<h3>Per Box</h3>
<h3>Each box contain 10 pcs these will cover 10 sq ft</h3>",,,,,,,,,1000,0,1,0,0,1,1,1,0,1,1,,0,1,0,1,0,1,0,1,0,0,0,1,Safari Teracotta - Checkers,5,simple,,
admin,base,WallTile,simple,"81,91,193",Bktpn07,0,Safari Ivory - Crystal,,,/Ivory - Crystal.jpg,/Ivory - Crystal.jpg,/Ivory - Crystal.jpg,,,No layout updates,Block after Info Column,,,,,Use config,Use config,No,400,,10,,Enabled,No,"Catalog, Search",None,No,0,Safari,300mmX300mm,10,Parking Tiles,Safari,"<h3>Per Box</h3>
<h3>Each box contain 10 pcs these will cover 10 sq ft</h3>",,,,,,,,,1000,0,1,0,0,1,1,1,0,1,1,,0,1,0,1,0,1,0,1,0,0,0,1,Safari Ivory - Crystal,6,simple,,
admin,base,WallTile,simple,"81,91,193",Bktpn08,0,Safari Teracotta - Crystal,,,/Teracotta - Crystal.jpg,/Teracotta - Crystal.jpg,/Teracotta - Crystal.jpg,,,No layout updates,Block after Info Column,,,,,Use config,Use config,No,400,,10,,Enabled,No,"Catalog, Search",None,No,0,Safari,300mmX300mm,10,Parking Tiles,Safari,"<h3>Per Box</h3>
<h3>Each box contain 10 pcs these will cover 10 sq ft</h3>",,,,,,,,,1000,0,1,0,0,1,1,1,0,1,1,,0,1,0,1,0,1,0,1,0,0,0,1,Safari Teracotta - Crystal,7,simple,,
admin,base,WallTile,simple,"81,91,193",Bktpn09,0,Safari Ivory - Diamond,,,/Ivory - Diamond.jpg,/Ivory - Diamond.jpg,/Ivory - Diamond.jpg,,,No layout updates,Block after Info Column,,,,,Use config,Use config,No,400,,10,,Enabled,No,"Catalog, Search",None,No,0,Safari,300mmX300mm,10,Parking Tiles,Safari,"<h3>Per Box</h3>
<h3>Each box contain 10 pcs these will cover 10 sq ft</h3>",,,,,,,,,1000,0,1,0,0,1,1,1,0,1,1,,0,1,0,1,0,1,0,1,0,0,0,1,Safari Ivory - Diamond,8,simple,,
admin,base,WallTile,simple,"81,91,193",Bktpn10,0,Safari Teracotta - Diamond,,,/Teracotta - Diamond.jpg,/Teracotta - Diamond.jpg,/Teracotta - Diamond.jpg,,,No layout updates,Block after Info Column,,,,,Use config,Use config,No,400,,10,,Enabled,No,"Catalog, Search",None,No,0,Safari,300mmX300mm,10,Parking Tiles,Safari,"<h3>Per Box</h3>
<h3>Each box contain 10 pcs these will cover 10 sq ft</h3>",,,,,,,,,1000,0,1,0,0,1,1,1,0,1,1,,0,1,0,1,0,1,0,1,0,0,0,1,Safari Teracotta - Diamond,9,simple,,
admin,base,WallTile,simple,"81,91,193",Bktpn11,0,Safari Ivory - Dots,,,/Ivory - Dots.jpg,/Ivory - Dots.jpg,/Ivory - Dots.jpg,,,No layout updates,Block after Info Column,,,,,Use config,Use config,No,400,,10,,Enabled,No,"Catalog, Search",None,No,0,Safari,300mmX300mm,10,Parking Tiles,Safari,"<h3>Per Box</h3>
<h3>Each box contain 10 pcs these will cover 10 sq ft</h3>",,,,,,,,,1000,0,1,0,0,1,1,1,0,1,1,,0,1,0,1,0,1,0,1,0,0,0,1,Safari Ivory - Dots,10,simple,,
admin,base,WallTile,simple,"81,91,193",Bktpn12,0,Safari Teracotta - Dots,,,/Teracotta - Dots.jpg,/Teracotta - Dots.jpg,/Teracotta - Dots.jpg,,,No layout updates,Block after Info Column,,,,,Use config,Use config,No,400,,10,,Enabled,No,"Catalog, Search",None,No,0,Safari,300mmX300mm,10,Parking Tiles,Safari,"<h3>Per Box</h3>
<h3>Each box contain 10 pcs these will cover 10 sq ft</h3>",,,,,,,,,1000,0,1,0,0,1,1,1,0,1,1,,0,1,0,1,0,1,0,1,0,0,0,1,Safari Teracotta - Dots,11,simple,,
admin,base,WallTile,simple,"81,91,193",Bktpn13,0,Safari Ivory - Peramid,,,/Ivory - Peramid.jpg,/Ivory - Peramid.jpg,/Ivory - Peramid.jpg,,,No layout updates,Block after Info Column,,,,,Use config,Use config,No,400,,10,,Enabled,No,"Catalog, Search",None,No,0,Safari,300mmX300mm,10,Parking Tiles,Safari,"<h3>Per Box</h3>
<h3>Each box contain 10 pcs these will cover 10 sq ft</h3>",,,,,,,,,1000,0,1,0,0,1,1,1,0,1,1,,0,1,0,1,0,1,0,1,0,0,0,1,Safari Ivory - Peramid,12,simple,,
admin,base,WallTile,simple,"81,91,193",Bktpn14,0,Safari Teracotta - Peramid,,,/Teracotta - Peramid.jpg,/Teracotta - Peramid.jpg,/Teracotta - Peramid.jpg,,,No layout updates,Block after Info Column,,,,,Use config,Use config,No,400,,10,,Enabled,No,"Catalog, Search",None,No,0,Safari,300mmX300mm,10,Parking Tiles,Safari,"<h3>Per Box</h3>
<h3>Each box contain 10 pcs these will cover 10 sq ft</h3>",,,,,,,,,1000,0,1,0,0,1,1,1,0,1,1,,0,1,0,1,0,1,0,1,0,0,0,1,Safari Teracotta - Peramid,13,simple,,
admin,base,WallTile,simple,"81,91,193",Bktpn15,0,Safari Ivory - Plain,,,/Ivory - Plain.jpg,/Ivory - Plain.jpg,/Ivory - Plain.jpg,,,No layout updates,Block after Info Column,,,,,Use config,Use config,No,400,,10,,Enabled,No,"Catalog, Search",None,No,0,Safari,300mmX300mm,10,Parking Tiles,Safari,"<h3>Per Box</h3>
<h3>Each box contain 10 pcs these will cover 10 sq ft</h3>",,,,,,,,,1000,0,1,0,0,1,1,1,0,1,1,,0,1,0,1,0,1,0,1,0,0,0,1,Safari Ivory - Plain,14,simple,,
admin,base,WallTile,simple,"81,91,193",Bktpn16,0,Safari Teracotta - Plain,,,/Teracotta - Plain.jpg,/Teracotta - Plain.jpg,/Teracotta - Plain.jpg,,,No layout updates,Block after Info Column,,,,,Use config,Use config,No,400,,10,,Enabled,No,"Catalog, Search",None,No,0,Safari,300mmX300mm,10,Parking Tiles,Safari,"<h3>Per Box</h3>
<h3>Each box contain 10 pcs these will cover 10 sq ft</h3>",,,,,,,,,1000,0,1,0,0,1,1,1,0,1,1,,0,1,0,1,0,1,0,1,0,0,0,1,Safari Teracotta - Plain,15,simple,,
admin,base,WallTile,simple,"81,91,193",Bktpn17,0,Safari Ivory - Spots,,,/Ivory - Spots.jpg,/Ivory - Spots.jpg,/Ivory - Spots.jpg,,,No layout updates,Block after Info Column,,,,,Use config,Use config,No,400,,10,,Enabled,No,"Catalog, Search",None,No,0,Safari,300mmX300mm,10,Parking Tiles,Safari,"<h3>Per Box</h3>
<h3>Each box contain 10 pcs these will cover 10 sq ft</h3>",,,,,,,,,1000,0,1,0,0,1,1,1,0,1,1,,0,1,0,1,0,1,0,1,0,0,0,1,Safari Ivory - Spots,16,simple,,
admin,base,WallTile,simple,"81,91,193",Bktpn18,0,Safari Teracotta - Spots,,,/Teracotta - Spots.jpg,/Teracotta - Spots.jpg,/Teracotta - Spots.jpg,,,No layout updates,Block after Info Column,,,,,Use config,Use config,No,400,,10,,Enabled,No,"Catalog, Search",None,No,0,Safari,300mmX300mm,10,Parking Tiles,Safari,"<h3>Per Box</h3>
<h3>Each box contain 10 pcs these will cover 10 sq ft</h3>",,,,,,,,,1000,0,1,0,0,1,1,1,0,1,1,,0,1,0,1,0,1,0,1,0,0,0,1,Safari Teracotta - Spots,17,simple,,
admin,base,WallTile,simple,"81,91,193",Bktpn19,0,Safari Ivory - Square,,,/Ivory - Square.jpg,/Ivory - Square.jpg,/Ivory - Square.jpg,,,No layout updates,Block after Info Column,,,,,Use config,Use config,No,400,,10,,Enabled,No,"Catalog, Search",None,No,0,Safari,300mmX300mm,10,Parking Tiles,Safari,"<h3>Per Box</h3>
<h3>Each box contain 10 pcs these will cover 10 sq ft</h3>",,,,,,,,,1000,0,1,0,0,1,1,1,0,1,1,,0,1,0,1,0,1,0,1,0,0,0,1,Safari Ivory - Square,18,simple,,
admin,base,WallTile,simple,"81,91,193",Bktpn20,0,Safari Teracotta - Square,,,/Teracotta - Square.jpg,/Teracotta - Square.jpg,/Teracotta - Square.jpg,,,No layout updates,Block after Info Column,,,,,Use config,Use config,No,400,,10,,Enabled,No,"Catalog, Search",None,No,0,Safari,300mmX300mm,10,Parking Tiles,Safari,"<h3>Per Box</h3>
<h3>Each box contain 10 pcs these will cover 10 sq ft</h3>",,,,,,,,,1000,0,1,0,0,1,1,1,0,1,1,,0,1,0,1,0,1,0,1,0,0,0,1,Safari Teracotta - Square,19,simple,,
admin,base,WallTile,simple,"81,91,193",Bktpn21,0,Safari Ivory - Stars,,,/Ivory - Stars.jpg,/Ivory - Stars.jpg,/Ivory - Stars.jpg,,,No layout updates,Block after Info Column,,,,,Use config,Use config,No,400,,10,,Enabled,No,"Catalog, Search",None,No,0,Safari,300mmX300mm,10,Parking Tiles,Safari,"<h3>Per Box</h3>
<h3>Each box contain 10 pcs these will cover 10 sq ft</h3>",,,,,,,,,1000,0,1,0,0,1,1,1,0,1,1,,0,1,0,1,0,1,0,1,0,0,0,1,Safari Ivory - Stars,20,simple,,
admin,base,WallTile,simple,"81,91,193",Bktpn22,0,Safari Teracotta - Stars,,,/Teracotta - Stars.jpg,/Teracotta - Stars.jpg,/Teracotta - Stars.jpg,,,No layout updates,Block after Info Column,,,,,Use config,Use config,No,400,,10,,Enabled,No,"Catalog, Search",None,No,0,Safari,300mmX300mm,10,Parking Tiles,Safari,"<h3>Per Box</h3>
<h3>Each box contain 10 pcs these will cover 10 sq ft</h3>",,,,,,,,,1000,0,1,0,0,1,1,1,0,1,1,,0,1,0,1,0,1,0,1,0,0,0,1,Safari Teracotta - Stars,21,simple,,
admin,base,WallTile,simple,"81,91,193",Bktpn23,0,Safari Ivory - Step,,,/Ivory - Step.jpg,/Ivory - Step.jpg,/Ivory - Step.jpg,,,No layout updates,Block after Info Column,,,,,Use config,Use config,No,400,,10,,Enabled,No,"Catalog, Search",None,No,0,Safari,300mmX300mm,10,Parking Tiles,Safari,"<h3>Per Box</h3>
<h3>Each box contain 10 pcs these will cover 10 sq ft</h3>",,,,,,,,,1000,0,1,0,0,1,1,1,0,1,1,,0,1,0,1,0,1,0,1,0,0,0,1,Safari Ivory - Step,22,simple,,
admin,base,WallTile,simple,"81,91,193",Bktpn24,0,Safari Ivory - Stone,,,/Ivory - Stone.jpg,/Ivory - Stone.jpg,/Ivory - Stone.jpg,,,No layout updates,Block after Info Column,,,,,Use config,Use config,No,400,,10,,Enabled,No,"Catalog, Search",None,No,0,Safari,300mmX300mm,10,Parking Tiles,Safari,"<h3>Per Box</h3>
<h3>Each box contain 10 pcs these will cover 10 sq ft</h3>",,,,,,,,,1000,0,1,0,0,1,1,1,0,1,1,,0,1,0,1,0,1,0,1,0,0,0,1,Safari Ivory - Stone,23,simple,,
admin,base,WallTile,simple,"81,91,193",Bktpn25,0,Safari Teracotta - Stone,,,/Teracotta - Stone.jpg,/Teracotta - Stone.jpg,/Teracotta - Stone.jpg,,,No layout updates,Block after Info Column,,,,,Use config,Use config,No,400,,10,,Enabled,No,"Catalog, Search",None,No,0,Safari,300mmX300mm,10,Parking Tiles,Safari,"<h3>Per Box</h3>
<h3>Each box contain 10 pcs these will cover 10 sq ft</h3>",,,,,,,,,1000,0,1,0,0,1,1,1,0,1,1,,0,1,0,1,0,1,0,1,0,0,0,1,Safari Teracotta - Stone,24,simple,,
admin,base,WallTile,simple,"81,91,193",Bktpn26,0,Safari Ivory - Tabs,,,/Ivory - Tabs.jpg,/Ivory - Tabs.jpg,/Ivory - Tabs.jpg,,,No layout updates,Block after Info Column,,,,,Use config,Use config,No,400,,10,,Enabled,No,"Catalog, Search",None,No,0,Safari,300mmX300mm,10,Parking Tiles,Safari,"<h3>Per Box</h3>
<h3>Each box contain 10 pcs these will cover 10 sq ft</h3>",,,,,,,,,1000,0,1,0,0,1,1,1,0,1,1,,0,1,0,1,0,1,0,1,0,0,0,1,Safari Ivory - Tabs,25,simple,,
admin,base,WallTile,simple,"81,91,193",Bktpn27,0,Safari Teracotta - Tabs,,,/Teracotta - Tabs.jpg,/Teracotta - Tabs.jpg,/Teracotta - Tabs.jpg,,,No layout updates,Block after Info Column,,,,,Use config,Use config,No,400,,10,,Enabled,No,"Catalog, Search",None,No,0,Safari,300mmX300mm,10,Parking Tiles,Safari,"<h3>Per Box</h3>
<h3>Each box contain 10 pcs these will cover 10 sq ft</h3>",,,,,,,,,1000,0,1,0,0,1,1,1,0,1,1,,0,1,0,1,0,1,0,1,0,0,0,1,Safari Teracotta - Tabs,26,simple,,
admin,base,WallTile,simple,"81,91,193",Bktpn28,0,Safari Ivory - Wave,,,/Ivory - Wave.jpg,/Ivory - Wave.jpg,/Ivory - Wave.jpg,,,No layout updates,Block after Info Column,,,,,Use config,Use config,No,400,,10,,Enabled,No,"Catalog, Search",None,No,0,Safari,300mmX300mm,10,Parking Tiles,Safari,"<h3>Per Box</h3>
<h3>Each box contain 10 pcs these will cover 10 sq ft</h3>",,,,,,,,,1000,0,1,0,0,1,1,1,0,1,1,,0,1,0,1,0,1,0,1,0,0,0,1,Safari Ivory - Wave,27,simple,,
admin,base,WallTile,simple,"81,91,193",Bktpn29,0,Safari Teracotta - Wave,,,/Teracotta - Wave.jpg,/Teracotta - Wave.jpg,/Teracotta - Wave.jpg,,,No layout updates,Block after Info Column,,,,,Use config,Use config,No,400,,10,,Enabled,No,"Catalog, Search",None,No,0,Safari,300mmX300mm,10,Parking Tiles,Safari,"<h3>Per Box</h3>
<h3>Each box contain 10 pcs these will cover 10 sq ft</h3>",,,,,,,,,1000,0,1,0,0,1,1,1,0,1,1,,0,1,0,1,0,1,0,1,0,0,0,1,Safari Teracotta - Wave,28,simple,,
admin,base,WallTile,simple,"81,91,193",Bktpn30,0,Safari Ivory - Wings,,,/Ivory - Wings.jpg,/Ivory - Wings.jpg,/Ivory - Wings.jpg,,,No layout updates,Block after Info Column,,,,,Use config,Use config,No,400,,10,,Enabled,No,"Catalog, Search",None,No,0,Safari,300mmX300mm,10,Parking Tiles,Safari,"<h3>Per Box</h3>
<h3>Each box contain 10 pcs these will cover 10 sq ft</h3>",,,,,,,,,1000,0,1,0,0,1,1,1,0,1,1,,0,1,0,1,0,1,0,1,0,0,0,1,Safari Ivory - Wings,29,simple,,
admin,base,WallTile,simple,"81,91,193",Bktpn31,0,Safari Teracotta - Wings,,,/Teracotta - Wings.jpg,/Teracotta - Wings.jpg,/Teracotta - Wings.jpg,,,No layout updates,Block after Info Column,,,,,Use config,Use config,No,400,,10,,Enabled,No,"Catalog, Search",None,No,0,Safari,300mmX300mm,10,Parking Tiles,Safari,"<h3>Per Box</h3>
<h3>Each box contain 10 pcs these will cover 10 sq ft</h3>",,,,,,,,,1000,0,1,0,0,1,1,1,0,1,1,,0,1,0,1,0,1,0,1,0,0,0,1,Safari Teracotta - Wings,30,simple,,
